{
  "draftId": "0",
  "dataRecord": {
    "entityName": "organization",
    "externalId": {
      "externalId": {},
      "sourceSystem": "unidata"
    },
    "simpleAttributes": [
      {
        "value": {},
        "type": "String",
        "name": "orgName"
      }
    ],
    "validFrom": null,
    "validTo": null
  }
}